{"page":1,"per_page":6,"total":7544,"total_pages":1288,"data":[{"id":3,"flightName":"AirIndia","Country":"India","Destinations":"28","URL":"http:\\/\\/en.wikipedia.org/wiki/Air_India"},{"id":33,"flightName":"AirIndia","Country":"India","Destinations":"28","URL":"http:\\/\\/en.wikipedia.org/wiki/Air_India"},{"id":36,"flightName":"Srilankan AriLines","Country":"srilanka","Destinations":"28","URL":"http:\\/\\/en.wikipedia.org/wiki/Air_India"},{"id":42,"flightName":"AirIndia.Raj","Country":"India","Destinations":"28","URL":"http:\\/\\/en.wikipedia.org/wiki/Air_India"},{"id":49,"flightName":"AirIndia","Country":"India","Destinations":"28","URL":"http:\\/\\/en.wikipedia.org/wiki/Air_India"},{"id":59,"flightName":"AirIndia","Country":"India","Destinations":"28","URL":"http:\\/\\/en.wikipedia.org/wiki/Air_India"}],"support":{"url":"https:\\/\\/www.omrbranch.com","text":"For Joining Automation Course Please Contact-Velmurugan 9944152058"}}